<?xml version="1.0" encoding="utf-8"?>
<!-- Generator: Adobe Illustrator 18.1.1, SVG Export Plug-In . SVG Version: 6.00 Build 0)  -->
<svg version="1.1" id="Layer_1" xmlns="http://www.w3.org/2000/svg" xmlns:xlink="http://www.w3.org/1999/xlink" x="0px" y="0px"
	 width="40px" height="46.7px" viewBox="-455 413.7 40 46.7" enable-background="new -455 413.7 40 46.7" xml:space="preserve">
<path fill="#59E4EC" d="M-415.3,434c-1.1-6-5.1-10.1-9.6-10.1c-3.8,0-5.9,0.8-7.4,1.3c-0.6,0.2-1.1,0.4-1.6,0.5
	c0-0.9,0.3-2.7,1.4-4.6c1.5-2.6,3.5-3.1,3.6-3.1c0.4-0.1,0.6-0.5,0.6-0.9c-0.1-0.4-0.5-0.6-0.9-0.6c-0.1,0-2.5,0.6-4.3,3.4
	c-0.8-1.4-2.5-3.9-5.8-5.2c-1.7-0.7-3.4-1-5.1-1c-2.6,0-4.2,0.8-4.3,0.8c-0.3,0.2-0.5,0.6-0.3,0.9c0.1,0.2,1.8,4.1,6.4,5.5
	c2.6,0.8,5.2,1,6.9,1c0,0,0,0,0,0c0.4,0,0.8,0,1.1,0c-0.6,1.6-0.8,3-0.8,3.8c-0.5-0.1-1.1-0.3-1.7-0.5c-1.5-0.5-3.3-1.2-5.8-1.2
	c-1.5,0-3,0.2-4.6,0.7c-3.6,1.1-7.9,4.5-7.5,14.6c0.5,12.1,9.8,21,14.4,21c2.5,0,3.8-0.3,4.7-0.5c0.5-0.1,0.8-0.2,1.3-0.2
	c0.5,0,1.3,0.1,2.1,0.3c1,0.2,2.1,0.4,3.3,0.4c0.3,0,0.6,0,0.9-0.1c2.7-0.3,7.6-4.5,10.3-10.1C-415.5,445-414.4,438.6-415.3,434z
	 M-435.6,420.5L-435.6,420.5c-1.6,0-4.1-0.2-6.5-0.9c-2.9-0.9-4.5-3-5.2-4c0.6-0.2,1.6-0.4,2.9-0.4c1.5,0,3,0.3,4.5,0.9
	c2.7,1.1,4.2,3.2,4.9,4.4C-435.1,420.5-435.3,420.5-435.6,420.5z M-419.3,449.6c-2.6,5.3-7.1,9-9.2,9.3c-0.2,0-0.5,0-0.8,0
	c-1,0-2.1-0.2-3-0.4c-0.8-0.2-1.6-0.3-2.2-0.3c-0.1,0-0.1,0-0.2,0c-0.6,0-1,0.1-1.5,0.3c-0.9,0.2-2,0.5-4.4,0.5
	c-3.5,0-12.5-7.8-13-19.6c-0.3-7.4,1.9-11.8,6.5-13.2c1.4-0.4,2.8-0.6,4.1-0.6c2.2,0,4,0.6,5.3,1.1c0.9,0.3,1.7,0.6,2.4,0.6
	c0.1,0,0.2,0,0.4,0c1.1,0,2-0.3,3-0.7c1.5-0.5,3.3-1.2,6.9-1.2c3.8,0,7.1,3.7,8.1,8.9C-415.9,438.6-416.9,444.6-419.3,449.6z"/>
</svg>
