<?xml version="1.0" encoding="utf-8"?>
<!-- Generator: Adobe Illustrator 18.1.1, SVG Export Plug-In . SVG Version: 6.00 Build 0)  -->
<svg version="1.1" id="Layer_1" xmlns="http://www.w3.org/2000/svg" xmlns:xlink="http://www.w3.org/1999/xlink" x="0px" y="0px"
	 width="16.8px" height="32px" viewBox="-267.4 198.4 16.8 32" enable-background="new -267.4 198.4 16.8 32" xml:space="preserve">
<polygon fill="#FFFFFF" points="-267.4,198.4 -267.4,202.6 -255,214.4 -267.4,226.3 -267.4,230.4 -250.6,214.4 "/>
</svg>
