<?xml version="1.0" encoding="utf-8"?>
<!-- Generator: Adobe Illustrator 18.1.1, SVG Export Plug-In . SVG Version: 6.00 Build 0)  -->
<svg version="1.1" id="Layer_1" xmlns="http://www.w3.org/2000/svg" xmlns:xlink="http://www.w3.org/1999/xlink" x="0px" y="0px"
	 width="57px" height="57px" viewBox="-491.5 439.6 57 57" enable-background="new -491.5 439.6 57 57" xml:space="preserve">
<path fill="#1E5279" stroke="#1E5279" stroke-miterlimit="10" d="M-446.7,455.7L-446.7,455.7C-446.7,455.7-446.7,455.7-446.7,455.7
	C-446.7,455.7-446.7,455.7-446.7,455.7L-446.7,455.7z"/>
<path fill="#1E5279" stroke="#1E5279" stroke-miterlimit="10" d="M-435.2,483.4c-0.7-0.3-0.6-0.8-0.6-1.3c0-0.3,0-0.6-0.1-1
	c-0.4-1.8-0.7-3.6-1.1-5.4c-0.1-0.5-0.5-1.1-0.9-1.3c-0.7-0.3-1.5-0.4-2.2-0.3c-1.5,0.2-2.4,1.2-3.1,2.4c-0.4,0.7-1.4,1.2-2.1,1
	c-0.1,0-0.3-0.2-0.3-0.2c0.1-0.5,0.2-0.9,0.4-1.4c0.1-0.1,0.5-0.1,0.7-0.2c1.2-0.1,1.8-0.6,1.9-1.9c0-0.5,0.2-0.9,0.5-1.3
	c1.2-1.3,1.3-3,1.2-4.7c0-0.5-0.5-1-0.6-1.4c0.2-0.4,0.6-0.8,0.5-1.2c-0.1-0.7-0.4-1.3-0.6-1.9c-0.1-0.2-0.2-0.4-0.4-0.5
	c-0.7-0.4-1.5-0.9-2.2-1.3c-1-0.5-2-0.9-3-1.4c-1.2-0.6-2.3-1.8-3.7-2.1c-0.7-0.1-1.4,0.1-2,0.3c-1.6,0.5-1.4,1.1-1.5,3
	c0,0.1-0.1,0.4-0.2,0.4c-1,0.1-1.7,0.6-2.1,1.6c-0.9-0.8-1.3-0.7-1.7,0.3c-0.2,0.5-0.5,1-0.8,1.5c-0.2,0.3-0.5,0.6-0.7,0.6
	c-0.8,0-1.1,0.6-1.5,1.1c-0.2,0.3-0.4,0.6-0.7,0.9c-0.6,0.5-0.7,1.1-0.7,1.8c0,0.4,0.1,0.8,0.1,1.1c0,0.5-0.1,0.9-0.3,1.4
	c-0.3,0.8-0.8,1.5-1,2.3c-0.3,1.2-0.4,2.5-0.6,3.7c0,0.3,0,0.6,0.1,0.9c0.4,1.3,0.8,2.6,1.4,3.7c1.2,2.2,1.1,4.3-0.1,6.5
	c-1,1.9-1.7,4-3.6,5.2c-0.2,0.1-0.3,0.7-0.2,0.8c0.2,0.3,0.6,0.5,0.9,0.5c1.8,0.1,3.6,0,5.5,0.1c6,0,12,0.1,18,0.1
	c0.4,0,0.9-0.1,1.1-0.3c0.9-1.1,1.8-2.3,1.5-3.9c-0.1-0.5,0.1-0.8,0.5-1c1-0.6,2-1.3,2.9-2c0.5-0.4,0.8-1.1,1-1.7
	c0.3-0.9,0.5-1.9,0.7-2.9C-435,484-435.1,483.5-435.2,483.4z M-436.7,484.6c-0.4,1.1,0,2.6-1.3,3.4c-0.9,0.6-1.8,1.2-2.7,1.8
	c-0.7,0.5-1,1.1-0.9,1.9c0,0.5,0.1,1-0.1,1.5c-0.4,1.1-0.8,1.4-2,1.4c-6.6,0-13.2-0.1-19.9-0.1c-0.2,0-0.4,0-0.8,0
	c1.5-1.8,2.2-3.8,3.1-5.7c0.8-1.7,0.8-3.5,0-5.2c-0.6-1.4-1.1-2.8-1.6-4.2c-0.2-0.5-0.2-1.1-0.1-1.7c0.1-0.9,0.2-1.7,0.3-2.6
	c0-0.2,0.1-0.5,0.2-0.7c0.3-0.5,0.5-1,0.8-1.5c0.3-0.7,0.6-1.4,0.4-2.2c-0.2-0.8-0.2-1.5,0.5-2.1c0.5-0.5,0.9-1.1,1.6-1.4
	c0.5-0.2,0.8-0.7,1.3-1.1c0,0.5,0,0.9,0.1,1.4c0.1,0.5,0.2,1,0.8,1c0.6,0.1,1-0.3,1.1-0.8c0.2-0.9,0.4-1.8,0.5-2.8
	c0.1-1.4,0.2-1.5,1.5-1.6c0.2,0,0.4,0,0.6-0.1c0.6-0.1,0.8-0.4,0.7-1c-0.1-0.4-0.2-0.8-0.3-1.2c-0.1-0.8,0.3-1.2,1.1-1.3
	c0.4,0,0.9,0.1,1.3,0.3c1,0.5,1.8,1.1,2.8,1.6c0.9,0.4,1.8,0.8,2.7,1.2c0.6,0.3,1.2,0.5,1.7,0.9c0.5,0.3,0.5,0.9,0.2,1.3
	c-0.5,0.7-0.5,1.6,0.1,2.2c0.7,0.6,0.8,1.3,0.6,2.1c-0.1,1.1-0.5,2-1.2,2.8c-0.3,0.3-0.4,0.9-0.5,1.3c-0.1,0.8,0,0.8-0.9,0.8
	c-0.2,0-0.5,0-0.7,0c-0.5,0.1-0.9,0.4-1,0.9c-0.2,0.6-0.3,1.2-0.4,1.8c-0.2,1,0.3,1.8,1.3,2c1.6,0.3,3.2-0.5,4-2
	c0.6-1,1.4-1.6,2.6-1.5c0.5,0,0.7,0.2,0.8,0.7c0.3,1.5,0.7,3,0.9,4.6c0.1,0.6,0,1.2,0.1,1.8c0.1,0.5,0.2,1,0.4,1.5
	C-436.9,484.4-436.7,484.5-436.7,484.6z"/>
<path fill="#1E5279" stroke="#1E5279" stroke-miterlimit="10" d="M-451,456.4c0,0,0.7-0.7,1.4-0.6c2,0.3,3.9,0.6,5.9,0.9
	c0.3,0,0.7,0,1-0.2c0.7-0.7,0.7-1.8,0-2.7c-0.9-1.1-1.6-1.2-2.6-0.5c-0.4,0.3-0.6,0.2-0.8-0.1c-0.5-0.5-0.6-1.1-0.5-1.8
	c0.3-1.8-0.4-2.4-2.2-1.8c-0.4,0.1-1,0.3-1.3,0.1c-0.6-0.4-1.1-0.4-1.8-0.1c-0.6,0.3-0.8,0.1-0.8-0.7c0.1-1.3-0.5-1.9-1.8-1.7
	c-1.2,0.2-2.3,0.5-3.5,0.5c-1.8,0-3.5,0.4-5.1,1.2c-1,0.5-1.9,1-3.1,0.6c-0.6-0.2-1.3,0-2,0c-0.7,0-1.2-0.2-1.5-0.8
	c-0.3-0.6-0.8-1.2-1.1-1.8c-0.5-0.8-1.1-1.2-2-1.4c-0.8-0.2-1.7-0.3-2.6-0.5c0.2-0.2,0.3-0.4,0.5-0.6c1.1-0.6,2.1-1.3,3.2-1.8
	c0.9-0.5,1.1-1.1,0.5-1.8c-0.3-0.3-0.8-0.6-1.2-0.6c-1.6,0-3.2,0.1-4.5,1.3c-1.2,1-2.3,2-3.5,3c-0.2,0.2-0.5,0.5-0.8,0.5
	c-0.7,0-1.2,0.5-1.8,0.8c-0.5,0.3-1.1,0.6-1.7,0.8c-1,0.4-2.1,0.8-3.1,1.2c-0.7,0.2-1.4,0.5-2,0.7c-1.3,0.4-1.5,1-0.6,2
	c0.2,0.2,0.5,0.4,0.7,0.6c0.2,0.2,0.5,0.3,0.6,0.6c0.3,0.8,0.9,1,1.7,1.2c1.8,0.5,3.7,0.9,5.5,1.5c1.3,0.4,2.6,1,3.9,1.4
	c0.8,0.2,1.6,0.3,2.3,0.5c0.2,0,0.4,0.3,0.4,0.5c0.1,1.2,0.5,1.5,1.6,1.4c0.5-0.1,0.7,0,0.6,0.5c-0.1,0.6-0.2,1.2-0.4,1.8
	c-0.2,0.8-0.1,1.2,0.7,1.4c0.4,0.1,0.3,0.3,0.3,0.5c-0.1,0.8,0.3,1.4,0.8,1.8c0.6,0.5,1.1,0.3,1.4-0.3c0.8-1.4,1.6-2.8,2.4-4.2
	c0.3-0.6,0.6-1.1,1.4-0.8c0.1,0,0.3,0,0.4-0.1c0.3-0.1,0.5,0,0.7,0.3c0.5,0.7,1.2,0.7,1.7,0c0.5-0.7,1.1-1.3,1.6-2
	c0.4-0.6,0.9-0.9,1.7-0.8c1.1,0.1,2.2-0.1,3.2-0.7c0.4-0.2,1-0.4,1.4-0.2c1,0.3,1.7,0.5,3.1,1.2C-452.6,456.4-451,456.8-451,456.4
	 M-443.7,455c-0.5,0-0.8-0.1-1.3-0.1C-444.3,454.2-444.3,454.2-443.7,455z M-455.5,453.8c-0.9-0.2-1.8,0-2.6,0.5
	c-0.5,0.3-1.1,0.4-1.6,0.4c-1.4-0.1-2.7,0-3.5,1.4c-0.8-0.7-1-0.7-1.8-0.1c-0.2,0.1-0.4,0.3-0.6,0.5c-0.3,0.2-0.5,0.6-1,0
	c-0.3-0.4-0.8-0.2-1.3,0.4c-0.7,1-1.4,2.1-2.1,3.2c-0.2,0.4-0.4,0.7-0.6,1c-0.4-0.3-0.7-0.6-1.1-0.9c-0.1-0.1-0.1-0.3-0.1-0.4
	c0-0.5,0.1-1,0.1-1.4c0-1.2-0.4-1.6-1.6-1.7c-0.4,0-0.5-0.1-0.6-0.5c-0.1-0.4-0.4-0.8-0.8-0.9c-0.9-0.4-1.9-0.6-2.8-0.8
	c-0.7-0.2-1.4-0.3-2.1-0.6c-2.3-1.1-4.8-1.7-7.3-2.2c-0.5-0.1-1-0.3-1.3-0.9c-0.2-0.4-0.5-0.6-0.9-1c1.6-0.6,3.3-1.2,4.9-1.8
	c0.4-0.2,0.9-0.4,1.3-0.6c0.7-0.4,1.3-0.9,2.1-0.9c0.3,0,0.6-0.3,0.9-0.5c1.3-1,2.5-2.1,3.7-3.2c0.8-0.6,1.2-0.8,2.3-0.8
	c-0.6,0.4-1,0.7-1.5,1c-1.3,0.8-2,1.9-2.5,3.3c-0.1,0.3-0.1,0.7,0,1c0.2,0.8,0.7,1,1.4,0.5c0.2-0.1,0.3-0.2,0.4-0.3
	c1.3-1,2.9-0.8,3.8,0.6c0.4,0.6,0.8,1.1,1.1,1.7c0.5,0.9,1.2,1.3,2.1,1.3c0.5,0,1.1,0,1.6,0.1c0.5,0,0.9,0.2,1.4,0.1
	c0.6,0,1.2,0,1.7-0.2c1.2-0.4,2.3-1,3.5-1.5c0.2-0.1,0.5-0.2,0.8-0.2c1.8-0.2,3.6-0.3,5.5-0.5c0,0.3-0.1,0.6-0.2,1
	c0,0.7,0.2,1.1,0.9,1.2c0.7,0.1,1.4,0,2.1,0c0.1,0,0.3,0,0.4,0c1,0.5,1.9,0.3,2.9-0.2c-0.6,1.8,0.3,2.9,1.3,4.1c0,0,0,0,0,0l0,0l0,0
	c0,0,0,0,0,0c-0.9-0.1-1.8-0.2-2.7-0.4c-0.9-0.2-1.7-0.2-2.3,0.5c-0.3,0.3-0.6,0.2-0.9,0C-453.6,454.5-454.5,454-455.5,453.8z"/>
</svg>
