<?xml version="1.0" encoding="utf-8"?>
<!-- Generator: Adobe Illustrator 18.1.1, SVG Export Plug-In . SVG Version: 6.00 Build 0)  -->
<svg version="1.1" id="Layer_1" xmlns="http://www.w3.org/2000/svg" xmlns:xlink="http://www.w3.org/1999/xlink" x="0px" y="0px"
	 width="620px" height="568.9px" viewBox="0 0 620 568.9" enable-background="new 0 0 620 568.9" xml:space="preserve">
<g>
	<path opacity="0.71" fill="#052C3D" d="M435.1,568.9c-4.5,0-4.5-2.8-4.5-5.8c0-0.3,0-0.7,0-1c-0.1,0-0.3,0-0.5,0l-7.3,0
		c-9.9,0-20.2,0.1-30.3,0.2c-11.2,0.1-22.4,0.2-33.6,0.3c-5.2,0-28.1,0.3-28.1,0.3c-12.4,0.1-24.7,0.2-37.1,0.3c-1.9,0-3.8,0-5.7,0
		c-1.6,0-3.2,0-4.9,0c-1.7,0-3.3,0-5,0h-3.4l1.3-3.1c0-0.1,0.1-0.2,0.1-0.3c0.1-0.4,0.3-1,0.7-1.5c0.5-0.6,1-1.3,1.4-1.9
		c1.4-1.9,2.8-3.8,4.5-5.5c1.4-1.4,3.4-2.4,6.2-3.2c3.1-0.9,4.7-2.7,5.4-5.9c0.9-4.5,3-8.3,4.8-11.1c1.2-1.9,2.3-3.9,3.3-5.8
		c2-3.6,4-7.4,6.7-10.6c3.2-3.9,5.2-8.3,7-12.6c0.4-1,0.9-2.1,1.3-3.2c1-2.6,2.1-5.3,3.7-7.9c0.3-0.5,0.3-1.6,0.3-2.6
		c0-0.4,0-0.9,0.1-1.4c0.2-3.6,0.4-7.2,0.6-10.7l0-0.2c0.1-1.4,0.1-3.6,1.9-4.2c-0.7-2-0.7-4.2-0.6-6.1l0-0.1c0-0.9,0-1.8,0.1-2.7
		c0.1-4,0.2-8.1-0.1-12.1l-0.1-1.6c-0.4-5.9-0.8-11.9-2.1-17.5c-0.8-3.3-2.7-6.6-4.6-9.8c-0.4-0.8-0.9-1.5-1.3-2.3
		c-1.7-3.1-3.6-6.1-5.5-9.1c-1.3-2.1-2.6-4.2-3.9-6.4c-0.6-1-0.8-2.2-1-3.2c0-0.2-0.1-0.4-0.1-0.6c-0.2-0.8-0.1-1.6,0-2.3
		c0.5-4.8-0.5-9-3.1-13c-2.3-3.4-1.2-10.2,2-12.6c1.8-1.4,2.4-2.9,2.3-5.7c-0.2-3.8-0.2-7.6,0-12.1c0-1.6-0.4-2.9-1.3-4.2
		c-0.7-0.9-1.2-1.7-1.8-2.6c-0.2-0.3-0.4-0.6-0.6-0.9c-1.4-2.1-1.8-4.4-1.2-6.7c0.6-2.3,2.3-4.3,4.7-5.5c0.2-0.1,0.6-0.6,0.9-1
		c0.1-0.2,0.3-0.3,0.4-0.5c0.1-0.3,0.3-0.7,0.7-1.1c2.6-2.6,4.2-5.8,5.3-10.9c0.6-2.6,1.7-5.1,3.1-6.8c3-3.6,3.3-8,3.8-12.6
		c0.6-6.8,1.3-14,2.3-22.7c0.2-1.5,1.5-2.9,2.7-3.5l0.4-0.2c1.7-0.9,3.5-1.7,5.5-2.1c1.3-0.3,2-1.1,3.2-2.7c0.4-0.5,0.7-1,1.2-1.5
		c0-0.1,0-0.2,0-0.2c0-0.5-0.1-1-0.1-1.5c-0.1-1.5-0.2-2.9-0.5-4.2c-0.6-3.1,0.7-5.4,3.9-7c1.2-0.6,2.5-1,3.7-1.4l0.4-0.1
		c0.1,0,0.5-0.2,0.7-0.3c0,0,0-0.1,0-0.2c0.1-2.9,3.9-4.8,6.3-4.8c0.5,0,0.9,0.1,1.4,0.2c1,0.3,2.1,0.7,3,1.1c0.5,0.2,1,0.3,1.4,0.5
		c0.3,0.1,0.6,0.2,0.8,0.2c0.2,0,0.6,0,0.9-1l0-0.1c0.1-0.3,0.2-0.6,0.3-0.8c0.7-4.2,2.9-7.3,6.6-9.3c0.9-0.5,1.2-1.4,1.6-3
		c0.1-0.5,0.2-0.9,0.4-1.4c0.4-1.3,1.3-4.3,4.8-5.1c0.1,0,0.1,0,0.2-0.1c1.8-3,4.6-3.8,6.9-4.4c0.5-0.1,0.9-0.3,1.4-0.4
		c0.6-0.2,1.1-0.3,1.5-0.3c1.1,0,1.8,0.5,2.2,0.9c1,1,1,2.4,1,2.8c0,0.2,0,0.4,0,0.5c0,0.2,0,0.5,0,0.5c0.8,4-1,7.1-5.1,8.5
		c1.8,2.4,3,6.1-0.8,10.6c-0.9,1-1,2.3-1.2,4.2c0,0.6-0.1,1.2-0.2,1.8c-0.3,2.6-0.7,5.3-1,7.9c-0.1,0.6-0.1,1.3-0.2,1.9l4.1,2.5
		c0.1,0,0.2,0,0.3,0c0.7,0,0.9-0.1,1.3-0.7c3.9-6.6,5.7-12.6,5.4-18.8c-0.2-5.3,0.1-10.6,0.5-15.8c0.1-1.8,0.2-3.7,0.3-5.5
		c0.2-4,3.5-7.9,7.4-8.7c1.2-0.2,2.1-0.9,3.4-2.1c2.3-2.1,5-3.9,7.5-5.7l1-0.7c0.9-0.6,2-0.7,3-0.7l0.7,0c1.1,0,2.1,0,3.2,0
		c-2.7-2.6-3.5-6.2-4-8.9c-0.5-2.4-0.3-4.7,0-6.2c0.3-1.7,1.4-3.6,2.7-4.8c2.1-1.9,4.5-3.9,7.6-6.2c-1.7-2-1.6-4.3-1.4-6
		c0-0.3,0-0.6,0.1-0.8c0.1-1.9,2.5-3,3.8-3c0.2,0,0.4,0,0.6,0.1c1.2,0.3,2.4,0.6,3.5,0.9c1.4,0.4,2.7,0.8,4,1c0.1,0,0.2,0,0.3,0
		c0.5,0,1.2-0.2,1.6-0.4c0.9-0.5,1.8-1.3,2.7-2.1c0.3-0.3,0.6-0.6,0.9-0.8c1.5-1.3,3.9-1.4,4.8-1.4c1,0,2.8,0.1,4.2,1.1
		c2.5,1.7,5.1,3.4,7.5,5.1c2.5,1.7,5.1,3.5,7.6,5.2c0.4,0.3,1.8,1.2,2.8,1.3c3.3,0.3,6.7,0.6,10,0.8c1.3,0.1,2.6,0.2,4,0.3l0.2,0
		c0.1,0,0.2,0,0.3,0c0.5,0,1.3,0.1,2,0.6c0.6,0.4,1.2,0.9,1.7,1.3c1.9,1.4,3.9,2.9,5.6,4.7c1.7,1.7,2.9,3.7,4,5.7
		c0.2,0.3,0.4,0.7,0.6,1c0.4,0.6,0.6,0.6,0.8,0.6c0.1,0,0.2,0,0.3,0c1-0.1,2.1-0.2,3.1-0.2c6.2,0,11.5,2.6,15.9,5.2
		c4.2,2.5,8.9,4.2,13.5,6c1.9,0.7,3.9,1.5,5.9,2.3c0.6,0.2,1.2,0.5,1.8,0.7c2.6,0.9,5.6,2,7.6,5c6,2.3,6,8.1,6,11
		c0,1.5,0.2,1.6,1.2,1.8c3.5,0.9,5.7,4.7,6,7.8c0.1,0.7,0.4,1.5,0.8,2.4c0.1,0.3,0.2,0.5,0.4,0.8c0.3,0.3,0.8,0.8,1,1.7
		c0.2,1.1,0.4,2.1,0.5,3.2c0.1,0.4,0.1,0.8,0.2,1.1l0.3,2.4l-2.4,0.2c-0.3,0-0.6,0.1-1,0.1c-0.6,0.1-1.3,0.2-2,0.2
		c-0.5,0-0.9,0-1.3-0.1c-1.4-0.3-2.7-0.8-3.9-1.2c-0.6-0.2-1.2-0.5-1.8-0.7c-0.5-0.2-0.8-0.2-1-0.2c-0.1,0-0.3,0-0.4,0.1
		c-0.1,0.1-0.3,0.6-0.3,1.7c0.2,3.8,1.2,6.4,3.2,8.4c0.9,0.9,1.7,1.9,2.4,2.9c0.7,0.9,1.3,1.8,2,2.4c3.9,3.7,4.9,8.4,5.7,12.6
		c0.2,0.8,0.3,1.7,0.5,2.6c0.1,0.4,0.4,2.3-0.8,3.5c-1.7,1.7-1.8,4-1.9,6.6c-0.1,1-0.1,1.9-0.3,2.9c-0.6,4-1,8.1-1.4,12
		c-0.3,3-0.6,6-1,9c-0.2,1.6-1.5,3.3-3,3.9c-1.7,0.7-2.8,1.8-3.4,3.5c-1.2,3.4-4.2,3.5-5.2,3.5c-1.4,0-3,0-3.4,0.2
		c-0.3,0.4-0.6,1.9-0.9,3.3l-0.1,0.5c-0.8,3.5-1.6,7-2.3,10.6c-0.8,3.9-3,6.2-6.5,6.8c-0.4,0.1-0.6,0.1-0.6,0.2c0,0.1,0,0.2,0,0.4
		c0.2,1.6-0.4,2.6-0.9,3.1c-0.8,0.8-1.9,1.3-3.3,1.3c0,0-0.5,0-0.6,0c-0.8,0-1.6,0-2.4,0c-0.8,0-1.7,0-2.5,0c-1.3,0-2.4-0.1-3.5-0.2
		c-0.2,0-0.4,0-0.5,0c-1.4,0-2.1,0.8-3.4,2.9c-1.8,3-2.2,6.5-2.5,9.9l0,0.3c-0.1,1.1-0.2,2.4-1,3.5c-0.7,1-0.8,1.7,0.3,3.3
		c1.1,1.6,2,3.2,2.8,4.8c0.3,0.5,0.5,1,0.8,1.5c0.4,0.7,0.9,1.1,2.5,1.3c0.3,0,0.7,0.1,1,0.1c1.1,0.1,2.4,0.2,3.6,0.6
		c1,0.3,2.9,1.1,4.2,2.7c0.2,0.3,0.4,0.4,0.5,0.5c0.1-0.1,0.2-0.2,0.3-0.3l0.5-0.6c1.3-1.5,2.6-3,3.6-4.5c2-3.1,4.8-4.9,8.4-5.5
		c0.2-0.1,0.5-0.4,0.8-0.8c0.5-0.9,1-1.8,1.5-2.8c0.7-1.4,1.4-2.8,2.4-4.1c1.3-1.8,2.4-3.8,3.6-5.9c0.7-1.2,1.4-2.5,2.1-3.7
		c3.1-5,7.2-8.4,12-9.7c2.4-0.6,4.6-1.2,6.9-1.6c1.6-0.3,2.5-0.8,3.2-1.8c0.9-1.2,2.7-1.8,4-1.8c0.2,0,0.4,0,0.5,0
		c6.1,0.7,12.4,1.5,18.4,2.3l2.2,0.3c0.8,0.1,2.2,0.3,3,1.4l0,0.1c1.9,2.5,3.8,5.1,5.5,7.9c0.8,1.3,1.5,2.7,2.2,4
		c0.7,1.4,1.4,2.8,2.3,4.1c2.3,3.5,3.5,7.6,3.8,12.4c0.3,5,0.7,10.1,1.1,15.1c0.1,1.4,0.2,2.9,0.3,4.3c0,0.2,0,0.4,0,0.6
		c0,0.3,0,0.8,0.1,1c2.6,3.8,2.8,8.1,3,11.9c0.1,1.5,0.1,2.9,0.3,4.3c0.4,2.7,0.6,5.4,0.7,8c0.1,1.4,0.2,2.8,0.3,4.2
		c0,0.2,0,0.3,0.1,0.4c1.9,2.1,2.1,4.5,2.3,6.5c0,0.3,0,0.6,0.1,0.9c0.2,2.3,0.8,4.5,1.6,6.2c2.7,5.5,2.4,10-1,13.9
		c-2,2.3-2.2,5-2.4,8.2c-0.1,1.1-0.2,2.3-0.3,3.4l-0.1,1c-0.9,5.9-1.8,11.9-2.7,17.8c-0.4,2.6-1.7,4.9-4.1,6.8
		c-1,0.8-1.9,1.7-3.1,2.7c-0.6,0.5-1.1,1.1-1.8,1.6l-5,4.6l1.3-6.7c0.4-2,0-2.2-2.2-3.1c-1.2-0.5-2.6-1.1-3.6-2.2l-0.2-0.2
		c0,0.2-0.1,0.5-0.1,0.7c-0.5,2.2-2.4,3.5-4.2,4.6c-1,0.6-1.3,1-1.3,2.2c0,2.4-0.3,4.7-0.6,6.9c-0.1,0.6-0.2,1.2-0.2,1.8
		c-0.1,0.8-0.4,2.2-1.5,3c-0.7,0.6-1.4,1.2-2.2,1.9c-2.4,2.2-5.1,4.6-8.8,5.4c-4.7,1-6.8,3.3-7.2,8.1c-0.2,2.5-1.4,4.9-2.4,7l0,0.1
		c-0.9,1.9-1.1,3.7-0.5,5.8c0.7,2.6,0.3,5-1.3,7.5c-2.4,3.7-4.8,7-9.2,8.6c-0.2,0.1-0.8,0.8-1.1,1.1l-0.1,0.1
		c-0.9,1.1-1.9,2.3-2.8,3.5c-1.3,1.7-2.7,3.4-4.2,5.1c-1.8,2.1-2.6,3.7-2.8,5.6c-0.2,3.2-2.1,4.8-5.5,4.9c-13,0.4-26.3,0.9-39.1,1.4
		c-3.3,0.1-6.6,0.3-9.8,0.4c-5.4,0.2-10.7,0.4-16.1,0.7l-4,0.2c-3.2,0.1-6.3,0.3-9.5,0.4c-7.2,0.3-14.7,0.6-22,0.9
		C435.9,568.9,435.5,568.9,435.1,568.9z M433.7,554.4c1.1,0,2.6,0,3.7,1.1c1.1,1.1,1.1,2.6,1,5c0,0,0,0.7,0,0.7
		c3.1-0.2,6.2-0.3,9.2-0.4c2.1-0.1,4.1-0.1,6.2-0.2c4.9-0.2,9.7-0.4,14.6-0.6c7.8-0.3,15.8-0.7,23.7-1c5.9-0.2,11.8-0.4,17.6-0.6
		c4-0.1,8-0.3,12-0.4c5-0.2,9.1-0.3,13.3-0.6c0.1,0,0.2-0.1,0.3-0.1c0.7-3.6,2.9-6.1,4.8-8.2c1-1.1,2-2.3,2.9-3.5
		c2.9-3.6,5.9-7.3,10.6-9.8c2-1.1,3.8-3.6,2.9-6.8c-0.4-1.3-0.9-3.7-0.1-5.6c2.2-5.1,3.8-10.4,5.1-16.2c0.4-1.8,2-3.2,3.4-3.8
		c1.2-0.5,2.5-1,3.7-1.4c1.7-0.6,3.2-1.1,4.6-1.9c0.3-0.2,0.6-0.3,0.9-0.5c3.8-2.1,6-3.5,5.6-7.2c-0.1-1.3,0-2.5,0.2-3.5
		c0.1-0.6,0.2-1.2,0.2-1.7c0.2-3.2,1.6-5.5,4.3-6.7c0,0,0,0,0,0c-1-1.5-0.8-3.2-0.7-4.3c0-0.3,0-0.6,0-0.8c0-1.6,1.5-3.4,3.1-3.5
		c3.7-0.5,7.5-0.9,11.1-1.2l2.3-0.2c0.2,0,0.4,0,0.6,0c1.5,0,2.4,0.7,2.9,1.2c0.5,0.6,1.1,1.6,0.9,3.1c-0.1,0.8-0.2,1.5-0.3,2.3
		c0-0.1,0.1-0.2,0.1-0.3c1.4-4.2,1.8-8.6,2.3-13.2c0.1-1.4,0.3-2.8,0.4-4.2c0.1-1.1,0.2-2.2,0.3-3.4c0.3-4.3,0.6-9.1,4.2-13.1
		c1-1.1,1.4-2.4,0.1-5.3c-0.9-2-2-4.7-2.4-7.5c-0.1-0.6-0.1-1.2-0.2-1.8c-0.1-1.8-0.2-2.9-1.1-3.7c-0.9-0.9-1.1-2.2-1.1-3
		c-0.2-1.7-0.3-3.3-0.5-5c-0.2-2.8-0.5-5.7-0.8-8.5c-0.2-1.3-0.2-2.5-0.3-3.7c-0.2-3.3-0.3-6.5-2.2-9.1c-0.6-0.8-0.6-1.7-0.7-2.3
		c0,0-0.2-2.7-0.3-4c-0.4-4.2-0.7-8.6-1-12.8l0-0.7c-0.4-5.5-0.7-10.6-3.9-14.9c-1.9-2.6-3.4-5.4-4.5-8.6c-1.3-3.5-3-3.7-3.5-3.8
		c-6.1-0.8-11.8-1.5-17.4-2.1c-0.1,0.1-0.3,0.2-0.5,0.3c-0.2,0.1-0.4,0.2-0.6,0.3c-0.3,0.2-0.6,0.4-1,0.6c-0.7,0.5-1.6,1.1-2.6,1.4
		c-2,0.7-4.1,1.1-6.1,1.4l-0.1,0c-5.5,1.1-9.3,4.3-11.4,9.8c-0.4,1.1-1,2-1.6,2.8c-0.2,0.3-0.4,0.5-0.5,0.8c-0.6,1-1.3,2-1.9,2.9
		c-1.4,2.1-2.7,4.1-3.8,6.2c-0.9,1.7-2.6,5-6.7,5.4c-1.3,0.1-2.2,0.7-2.9,1.8c-0.5,0.7-1,1.2-1.4,1.8c-0.5,0.6-0.9,1.1-1.3,1.6
		c-2.6,4.4-6.7,5.8-10,6.5c-0.7,0.2-1.3,0.2-1.8,0.2c-1.4,0-2.3-0.6-2.7-1.1c-1.1-1.2-1-2.8-0.9-3.4c0,0-0.1,0-0.2,0
		c-0.3,0-0.7-0.1-0.9-0.1c-0.3,0-0.5-0.1-0.7-0.1c-4.9-0.2-8.2-2.1-10.2-5.8c-0.7-1.4-1.5-2.7-2.2-4.1c-1-1.8-2.1-3.6-3-5.5
		c-0.7-1.3-0.2-2.7,0.1-3.7l0.1-0.3c0.2-0.8,0.5-1.5,0.8-2.3c0.5-1.2,0.9-2.4,1.1-3.4c0.4-3.2,1-7,2.9-10.7
		c2.3-4.5,4.8-7.1,10.8-7.1h0c0.5,0,1,0,1.5,0c0.5,0,1,0,1.5,0c1.2,0,2.1,0,3-0.1c1.4-3.8,5-4.5,6.2-4.8c0.4-0.1,0.6-0.1,0.8-0.9
		c0.6-3.2,1.4-6.4,2.1-9.4c0.3-1.1,0.5-2.2,0.8-3.3c1.6-6.8,2.4-7.5,9.2-7.9l0.1,0c0.2-0.1,0.5-0.3,1.3-1c1.4-1.2,2.8-2.7,4.3-4.3
		c0.6-0.7,0.7-0.9,0.7-0.9c0.3-2.2,0.5-4.5,0.7-6.7c0.4-3.6,0.7-7.2,1.3-10.8c0.2-1.1,0.2-2.3,0.3-3.5c0.1-3.1,0.3-6.6,2.5-9.8
		c-0.2-0.9-0.4-1.8-0.6-2.7c-0.4-2.2-0.7-4.1-2-5.6c-2.3-2.7-4.5-5.4-6.6-8.1c-0.7-0.9-1.4-1.7-2-2.6c-0.1-0.1-0.1-0.2-0.2-0.2
		c-0.5-0.6-1.2-1.4-1.3-2.6c-0.1-0.9-0.3-1.9-0.5-2.9c-0.7-3.2-1.5-7.2,1.5-11c0.1-0.1,0.2-0.2,0.3-0.3c0.7-1,1.9-2.5,4.1-2.5
		c0.3,0,0.5,0,0.8,0.1c1.2,0.2,2.5,0.4,3.7,0.6c0-0.2,0-0.4-0.1-0.7c-0.1-1.3-0.2-2-0.3-2.2c-0.1-0.1-0.4-0.3-2-0.8
		c-1.2-0.3-4.7-1.4-4.6-5.9c0-1.3-0.2-2.7-0.5-4.2c-0.1-0.5-0.2-0.9-0.2-1.4c0-0.1,0-0.2,0-0.2c-1.3-0.8-2.4-1.7-3.4-2.7
		c-2-1.7-3.8-3.2-6.1-3.6c-1.1-0.2-2.1-0.6-3-1c-0.3-0.1-0.6-0.3-0.9-0.4c-1.5-0.6-3-1.1-4.6-1.7c-3.6-1.3-7.4-2.6-10.6-4.7
		c-5.9-3.8-10.4-5.4-15.2-5.4c-1,0-2,0.1-3.1,0.2c-0.1,0-0.3,0-0.5,0c-0.4,0-0.8-0.1-1.1-0.3c-0.2-0.1-0.4-0.2-0.7-0.3
		c-0.9-0.4-1.9-0.8-2.7-1.8c-0.8-1-1.5-2.1-2.2-3.2c-0.9-1.4-1.7-2.7-2.7-3.8c-1.2-1.3-2.7-2.4-4.3-3.6c-0.5-0.3-0.9-0.7-1.4-1
		c-0.1,0-0.2,0-0.4,0c-1-0.1-2-0.2-3-0.3c-2.3-0.2-4.6-0.4-6.9-0.5c-3.4-0.2-7.4-0.8-11.3-4.1c-2.7-2.3-5.7-4.2-8.9-6.3
		c-1.2-0.8-2.5-1.6-3.7-2.4c-0.3-0.2-0.4-0.2-0.4-0.2s-0.2,0-0.5,0.3c-0.8,0.8-1.7,1.4-2.5,2c-0.7,0.5-1.4,1.1-2,1.6
		c-1.2,1-2.5,1.6-3.9,1.6c-0.7,0-1.4-0.1-2.2-0.4c-0.5-0.2-1-0.3-1.6-0.5c0.5,2.7-0.8,4.4-4.4,7c-1.8,1.3-3.5,2.8-5.2,4.2
		c-0.4,0.3-0.7,0.6-1.1,0.9c-0.1,0.1-0.2,0.3-0.3,0.4c-1.1,4,0.9,8.2,4.8,9.8c0.4,0.2,0.8,0.3,1.2,0.5c0.8,0.3,1.5,0.7,2.2,0.9
		c1.3,0.4,3.3,1.7,3,5c-0.3,3-2.8,5.2-5.8,5.3c-0.7,0-1.5,0-2.2,0c0,0,0,0,0,0c-0.7,0-1.3,0-2,0c-0.7,0-1.3,0-2,0
		c-1.3,0-3.1,0-4.8,0.1c-0.9,0-1.9,0.4-2.4,0.8c-1.5,1.1-2.9,2.3-4.3,3.5c-1,0.8-2,1.7-3,2.5c-1,0.8-2.2,1.4-3.3,1.7
		c-3.3,0.9-3.5,1.1-3.6,4.4c-0.1,1.3-0.1,2.7-0.2,4c-0.2,4.2-0.5,8.6-0.4,12.9c0.3,9-1.7,16.8-6.2,24c-1.2,2-3,4.1-6.5,4.8
		c-0.3,0.1-0.6,0.1-0.9,0.2c-0.9,0.2-1.7,0.4-2.7,0.4c-1.3,0-2.4-0.4-3.3-1.2c-0.4,0.2-0.9,0.3-1.5,0.3c-0.2,0-0.4,0-0.6-0.1
		c-2.6-0.5-5.3-5.9-5.1-8.1c0.1-1.3,0.3-2.7,0.4-4c0.3-3.3,0.7-6.7,1.1-10.1l0.1-0.7c0.3-2.8,0.7-5.9,3.3-8.5c0-0.1,0.1-0.1,0.1-0.2
		c-0.1-0.5-0.3-1-0.5-1.6c-0.9,2.2-2.4,3.9-4.4,5c-1.5,0.8-2.3,2-2.6,3.7c-0.2,1-0.5,1.9-0.8,2.7l-0.1,0.3c-1.3,3.3-4.4,5.4-7.9,5.4
		c-1,0-1.9-0.2-2.8-0.5l-1-0.4c-0.5-0.2-1.1-0.4-1.7-0.6c-0.2,1.3-1.1,2.7-3.4,3.3c-0.5,0.1-1,0.3-1.5,0.5c-0.3,0.1-0.6,0.2-0.9,0.3
		c-1.1,0.4-2.4,0.9-2.8,1.1c0,0.5,0.1,1.7,0.3,2.9l0,0.3c0.1,0.3,0.1,0.7,0.2,1.1c0.4,2,1.2,5.7-2.6,7.8c-1,3-3.7,4-5.2,4.5
		c-1.8,0.6-3.5,1.3-5.1,2.1c-0.1,0.1-0.3,0.3-0.4,0.5c-0.7,5.7-1.3,11.8-1.9,18.8c0,0.4-0.1,0.9-0.1,1.3c-0.5,5.8-1,11.8-5.5,16.9
		c-0.6,0.7-1.1,1.9-1.6,3.5c-1.1,4.5-2.8,9.6-6.6,14c-0.3,0.4-0.6,0.8-0.9,1.2c-0.9,1.3-2.1,2.9-4.3,3.8c-0.2,0.1-0.3,0.2-0.3,0.2
		c0,0,0,0.3,0.3,0.8l0.4,0.7c0.7,1.2,1.4,2.2,2.2,3.2c1.4,1.8,2.1,3.9,2,6.6l0,0.8c-0.1,4.6-0.2,9.4,0,14.1c0.2,3.8-1.1,6.7-3.9,9
		c-1.4,1.1-1.7,3.2-0.8,4.6c3.2,4.9,4.4,9.9,3.7,15.3c0,0.1,0,0.1,0,0.2c0.1,0.5,0.2,1,0.3,1.5c0.2,1.1,0.4,2.1,0.8,2.8
		c3.2,5.8,6.5,11.6,9.7,17.2c1.5,2.6,3,5.2,4.5,7.9c0.4,0.8,1,1.8,1.1,2.9c0.2,1.5,0.3,3,0.5,4.5c0.6,5.3,1.2,10.8,1.5,16.3
		c0.3,4.6,0.2,9.2,0.1,13.6l0,1.4c-0.1,2.4,0.4,3.9,1.6,5c2,1.9,2.4,4.5,1.1,6.9c-1,2-2.4,3.1-4.2,3.2c0,0.2,0,0.3,0,0.5
		c0,0.9-0.1,1.8-0.1,2.6c-0.1,5-0.3,10.7-4.2,15.5c0,0,0,0,0,0c0,0.2-0.1,0.4-0.2,0.6l-1.3,3.1c-1.6,3.9-3.2,7.9-4.8,11.8
		c-0.3,0.8-0.9,1.5-1.4,1.9c-0.1,0.1-0.2,0.2-0.2,0.3c-0.4,0.4-0.8,0.8-1.2,1.2c-0.7,0.7-1.3,1.3-1.7,1.9c-1.7,2.6-3.4,5.5-5.2,8.7
		c-0.6,1.1-1.2,2.1-1.8,3.1c-2.7,4.7-5.2,9.1-6.4,14.2c-0.9,4-4,7.2-8,8.3l-0.3,0.1c-1.1,0.3-2.1,0.6-2.8,1c-0.1,0-0.1,0.1-0.2,0.1
		c2.6,0,5.2-0.1,7.8-0.1c6.7-0.1,13.5-0.2,20.3-0.3c15.4-0.2,31.4-0.3,49.1-0.5c20.1-0.2,41.3-0.3,64.8-0.5c0.4,0,0.7,0,1.1,0
		C433,554.4,433.4,554.4,433.7,554.4z M592.8,478.9l0.2-0.3l-0.3,0C592.8,478.8,592.8,478.9,592.8,478.9z"/>
	<path opacity="0.71" fill="#052C3D" d="M222.8,236.1c-1.1-0.4-2.3-0.6-3.5-0.9c-2.8-0.6-5.9-1.2-8.3-4l-0.3-0.4
		c-0.5-0.6-0.9-1.1-1.4-1.4c-3.6-2.8-5.1-6.4-4.2-10.6c0.4-1.7,0.9-3.4,1.7-4.7c0.6-1,1.2-1.9,1.9-2.8c0.6-0.9,1.2-1.7,1.7-2.6
		c0,0,0,0,0-0.1c-2.8,0.8-5.6,1.8-8.4,2.9c-0.7,0.3-1.4,0.4-2,0.4c-1,0-2.7-0.4-3.8-2.7c-2.7-3.5-2.7-7.2-0.1-10.7
		c0.1-0.2,0.3-0.5,0.4-0.8c0.2-0.4,0.4-0.8,0.7-1.3c1.7-2.6,2.4-5.6,2.1-9.1c-0.1-1,0.2-1.9,0.4-2.7c0.1-0.5,0.3-1,0.2-1.3
		c-0.1-1.3-0.7-2.7-1.3-4.1l0-0.1c-0.5-1.2-1.1-2.7-0.2-4.2c0.1-0.1,0.1-0.2,0.2-0.3c-0.1,0-0.1,0-0.2-0.1
		c-3.7-1.4-7.5-2.9-11.2-4.4c-3.2-1.3-6.4-2.5-9.6-3.8c-1.1-0.4-3.8-1.5-3.6-4.9c0-0.2,0-0.4,0-0.7c0-1.3,0-3.8,2.7-5.1
		c0,0,0,0,0-0.1l0-0.1c0-0.3-0.1-0.7-0.1-0.9c0,0-0.1,0-0.1,0c-3.1-0.5-6.3-1-9.3-1.6c-1.8-0.3-3.6-0.6-5.5-0.9
		c-3.8-0.6-7.5-1.3-11.3-1.9c-8.8-1.5-17.9-3-26.8-4.5c-1.1-0.2-3.3-0.7-5.1-2.1c-4.4-3.5-9.6-5-15.1-6.7c-1-0.3-2-0.6-3-0.9
		c-23.2-7.1-47.1-13-73.3-18c-1.8-0.3-4.3-1.2-5.1-4.7c-0.6-2.5-1.4-5.1-2.3-7.7c-1.1-3.1-2.5-3.7-4.3-3.8c-1,0-1.8-0.2-2.7-0.3
		c-0.4-0.1-0.7-0.1-1.1-0.2c-3.7-0.5-4.7-2.5-4.8-4.4c0,0,0,0,0,0c0,0,0,0,0,0c-0.2,0-0.5,0.1-0.7,0.1c-0.7,0-1.3-0.2-1.7-0.5
		c-1.3-0.9-2.6-2-3.6-3.3L0,92.9l0.1-1c0.2-1.6,2.6-3.5,2.6-3.5c5.2-4.1,11.2-5.6,17.1-7.1l0.4-0.1c8.4-2.1,15.2-5.6,20.8-10.6
		c4.2-3.7,9-5,14.4-6.1c5.6-1.2,11.4-2.4,16.9-3.5c5.8-1.2,11.8-2.5,17.7-3.7c1.3-0.3,2.1-0.9,2.8-1.9c3.3-5.3,7.6-8.1,13.3-8.6
		c2.7-0.2,5.5-1.1,8.1-1.9l0.1,0c0.2-0.1,0.7-0.7,1-1.1c0.1-0.1,0.2-0.2,0.3-0.4c0-0.1,0.1-0.2,0.1-0.6c0.5-3.5,2.6-5.6,6.3-6.2
		c0.2-0.1,0.6-0.5,0.8-0.7c0.3-0.3,0.7-0.6,1.1-0.9c0.1-0.1,0.3-0.2,0.4-0.4c0.6-0.6,1.5-1.4,2.8-1.5c3.1-0.2,5.4-1.7,7.6-5.3
		c1.7-2.7,3.9-3.2,5.4-3.2c0.4,0,0.9,0,1.4,0.1c0.5,0.1,0.9,0.1,1.3,0.1c1.2,0,2.7-0.3,4-2.9c0.2-0.3,0.4-0.6,0.5-0.8c0,0,0,0,0,0
		c3.7-7.5,10.3-9.7,15.7-10.8c8.6-1.7,17.4-4,25.8-6.1c2.5-0.6,5-1.3,7.6-1.9c0.6-0.2,1.3-0.5,2-0.9c0.6-0.3,1.2-0.6,1.8-0.9
		c0.7-0.3,1.5-0.4,2.3-0.4c0.2,0,0.5,0,0.7,0c0.6,0.1,1.2,0.2,1.6,0.4c0.4,0.1,0.8,0.2,1,0.2c5.4,0.1,7.3,4.4,7.9,5.8
		c0.8,1.8,0.6,4.1-0.5,6.1c-1.1,1.9-2.9,3.1-4.9,3.3c-1.8,0.1-3.7,0.3-5.5,0.5c-1.9,0.2-3.7,0.3-5.6,0.5c-0.1,0-0.3,0-0.3,0
		c0,0,0,0.1,0,0.1c0.1,1.6-1.1,3.4-2.2,4.2c-1.7,1.3-3.5,2.7-5.1,4c-4.4,3.6-9,7.2-14.4,9.8c-0.1,0.2-0.3,0.6-0.3,0.8
		c0.3,3.8-1.4,6.4-5.1,7.4c-0.3,0.1-0.7,0.3-1.2,0.5c-0.3,0.2-0.6,0.3-1,0.5c-0.7,0.3-0.7,0.3-0.8,1.3c-0.4,2.4-1.8,4.5-3.1,6.3
		c-0.4,0.6-0.8,1.1-1.1,1.6c-0.3,0.4-0.9,1.2-2.3,1.2c-0.5,0-0.9-0.1-1.3-0.1l-0.3,0c-0.3,0-0.6-0.1-1-0.2L157,64.3
		c0.3-0.4,0.5-0.7,0.5-1.3c0.1-2,2.1-3.4,2.6-3.6c2.6-1.6,5.3-3.2,8-4.7c2.5-1.4,5-2.9,7.5-4.4c0.9-0.5,1.7-0.8,2.5-0.8
		c2.2,0,3.2,1.8,3.7,2.7c0.1,0.2,0.3,0.5,0.4,0.6c0.6,0.7,0.9,1.3,1,1.9c0.6-0.1,1.1-0.3,1.6-0.5c0.7-0.3,1.3-0.4,1.9-0.4
		c1.6,0,2.9,0.9,3.7,2.6c0.1,0.1,0.4,0.4,0.6,0.4c1.9,0.2,3.9,0.3,5.8,0.5c2.3,0.2,4.7,0.3,7.1,0.6c1.8,0.2,3.5,0.8,5.1,1.4
		c0.4,0.2,0.9,0.3,1.3,0.5c1.3,0.4,2.1,1.8,2.2,2.9c0,0,0,0.1,0,0.1c0.3,0,0.6-0.1,0.8-0.1c0.2,0,0.4-0.1,0.7-0.1
		c0.4-0.1,0.7-0.1,1-0.2c0.5-0.1,1.2-0.3,1.9-0.3c1.3,0,2.1,0.6,2.6,1c0.6,0.7,1,1.6,1,2.7c0,0,0,0,0.1,0c4.2,1.7,5,2.9,5.3,7.5
		c0,0.5,0.3,1.2,0.8,1.9c1.1,1.6,2.5,3.2,3.6,4.5c0.7,0.8,1.2,1.1,1.4,1.2l0.2,0.1c1.4,0.6,3.7,1.6,4,4.4c0,0,0.1,0,0.1,0.1
		c3.6,1.8,4.5,3.8,3.6,7.6c-0.1,0.5-0.1,0.7,0,0.8c0,0,0.2,0.1,0.6,0.1l1.3,0c1.7,0,3.5,0,5.2,0c2.5,0,4.6,0,6.5-0.1
		c0.2-0.1,0.5-0.4,0.8-0.5c0.3-0.2,0.5-0.4,0.8-0.6c0.1,0,0.2-0.2,0.3-0.3c0.4-0.4,1-1,1.9-1.3l0.2-0.1c2.6-0.8,4.3-1.4,5.9-1.4
		c2.9,0,4.7,1.9,7.3,4.9c1.9,2.2,4.2,2.5,7.1,2.9c0.3,0,0.6,0.1,0.9,0.1c1.4,0.2,2.9,0.4,4.3,0.6c2,0.3,4.1,0.5,6.2,0.9
		c1.5,0.3,3,1,4,2c1.7-2.2,3.9-3.3,5.8-4.4c0.8-0.4,1.5-0.8,2.2-1.3c0.4-0.3,0.9-1,1.2-1.7c0.6-1.6,1.4-3.3,3.6-4.4
		c1.7-0.8,3.4-1.7,5.1-2.6c2.7-1.4,5.4-2.8,8.2-4c2.3-1,5.1-1.7,8.5-2.1c7.9-1,15.9-1.9,23.7-2.9c3.2-0.4,6.4-0.7,9.6-1.1
		c3-0.4,5.9-0.7,8.9-1c7.2-0.8,14.6-1.7,21.9-2.7c3.5-0.5,7.1-1.4,10.6-2.2c2.1-0.5,4.2-1,6.3-1.4c0.3-0.1,0.5-0.1,0.8-0.1
		c0.7,0,1.3,0.2,1.7,0.3c0.2,0.1,0.5,0.1,0.7,0.1l0.2,0c1,0,2,0.1,2.9,0.1c0.7,0,1.4,0,2-0.1c2.1-0.2,4.2-0.4,6.4-0.7
		c1-0.1,2.1-0.2,3.2-0.4l4.7-0.5l-2.6,4c-0.6,0.9-1.1,1.7-1.6,2.5c-1.2,1.8-2.3,3.4-3.2,5.1c-0.5,1-0.9,2.2-1,3.3
		c-0.2,2.2-0.3,4.5-0.5,6.8c-0.1,1.9-0.2,3.8-0.4,5.7c0,0.3,0,0.5,0,0.6c0.1,0,0.1,0,0.2,0c2,0.2,4.8,0.7,6.7,3.3
		c1.4,0,2.7,0.3,4,0.5c1.3,0.2,2.5,0.4,3.6,0.4c1.5,0,2.6-0.4,3.6-1.2c0.9-0.7,1.9-0.8,2.9-0.8c0.8,0,1.7,0,2.5,0l2.4,0
		c1,0,1.9,0,2.9,0l0.1,0c1.4,0,2.5,0.4,3.2,1.2c0.4,0.5,0.9,1.2,1,2.4c2.8-0.4,5.6-0.7,8.3-1c3.1-0.4,6.2-0.7,9.3-1.1
		c1.1-0.1,1.9-0.2,2.6-0.2c3.5,0,4.3,2.7,4.9,4.8c1.7,5.6,3.1,11.3,4.6,17.1c0.4,1.4-0.2,2.9-0.8,3.9c-0.1,0.1-0.1,0.2-0.2,0.3
		c0.2,0,0.4,0,0.5,0.1c1.6,0.2,3.2,0.7,4.4,1.4c1,0.5,1.8,1.2,2.6,1.8c0.5,0.4,1.1,0.8,1.6,1.1c2.3,1.4,4.6,3.5,4.6,7.7
		c0.2,0.6,1.8,2,2.5,2.5l0.2,0.2c0.2,0.1,0.7,0.2,1.1,0.2c0.5,0.1,1,0.2,1.6,0.3c3.1,0.9,4.9,4,4.3,7.1c-0.6,2.9-2.7,4.6-5.8,4.7
		c-0.1,0-0.2,0-0.3,0c-0.5,0-0.9,0-1.4-0.1c-0.4,0-0.7-0.1-1.1-0.1c-0.9,0-1.2,0.2-1.6,0.6c-0.3,0.5-1,1-2.2,1
		c-0.5,0-1.6-0.1-2.4-0.8c-2.2-2-5.1-2.2-8.4-2.4l-0.7,0c-5.1-0.3-11-0.6-16.9-0.9c-0.1,0-0.3,0.1-0.4,0.2c-0.4,0.2-1,0.4-1.6,0.4
		c-2.4,0.2-4.9,0.4-7.8,0.5l-0.1,0c-1.5,0-2.7-1.3-3-2.5c-0.1-0.6-0.3-0.8-2.2-1.3l-0.4-0.1c-0.4-0.1-0.9-0.2-1.3-0.4
		c-0.4,1.6-1.5,2.6-2.3,3.3c0.7,2.2,0.1,4.3-0.4,5.9c-0.2,0.5-0.3,1.1-0.4,1.5c-0.6,3-2.9,4.9-5.9,4.9c-1.3,0-2.5-0.4-3.7-1
		c-0.1-0.1-0.6-0.3-1.8-0.3l-0.3,0c-3.7,0-4.6-2.5-4.7-4c-0.1-1-0.5-1.7-2.4-2.5c-1.3-0.6-3.1-1.5-4.3-3c-3.5-4.5-8.8-5.4-14-6.2
		c-8.5-1.4-16.9-2.4-24-3.3c0,0-0.1,0-0.1,0c-0.3,0-1,0.1-2.2,0.7c-0.8,0.4-1.6,1.1-2.3,1.9c-4.1,4.8-9.5,5.6-14.7,6.1
		c-6.4,0.6-13,1.3-19.3,2c-2.6,0.3-5.2,0.6-7.7,0.9c-1.3,0.1-2.7,0.3-4,0.5c-2.9,0.4-6,0.8-9,0.9c-2.2,0.1-3,2.5-3.2,4
		c-0.2,1.1-0.6,2.1-1,3c-0.1,0.2-0.2,0.4-0.3,0.7c-0.2,0.4-0.4,0.8-0.6,1.1c0,0.1-0.1,0.2-0.2,0.3c0.2,3.7-2.7,4.9-4,5.5
		c-2.9,1.2-5.5,2.4-7.9,3.7c-0.1,0-0.2,0.2-0.2,0.2c-0.3,3.7-3,4-3.9,4c-0.3,0-0.6,0-0.9-0.1c-0.2,0-0.3,0-0.4,0c0,0,0,0-0.1,0
		c-0.1,0.1-0.2,0.4-0.4,1.1c-0.8,3-2.6,7.1-8,7.1c-0.2,0-0.5,0-0.7,0c-1-0.1-1.9-0.5-2.6-0.8c-0.1-0.1-0.3-0.1-0.4-0.2
		c-0.5-0.2-0.9-0.5-1.2-0.7c-0.2-0.1-0.4-0.2-0.6-0.4c-0.4-0.2-0.9-0.4-1.4-0.6c-2-0.8-3.8-1.6-3.6-3.6l0-0.4
		c0.3-2.4,0.6-5.3,3.3-7.6c0.3-0.2,0.9-1,1.4-3.3c0.5-2.2,1.6-3.8,3.2-4.8c-1.6-0.5-3.1-0.9-4.7-1.3c-0.2,3.8-2.3,6.7-4.2,9.2
		c-0.7,1-1.4,1.9-2,2.9c-0.7,1.2-2.1,1.7-3.1,2.1c-1.3,0.4-2.6,0.8-3.9,1.1c-1.6,0.5-3.3,0.9-4.9,1.4c-0.7,0.2-1.2,0.3-1.8,0.3
		c-1.2,0-1.9-0.5-2.3-0.9c-0.9-0.9-1-2.2-1-3.3c0.1-2.6,0-5.3,0-7.9c0-0.4,0-0.7,0-1.1c-0.1,0.3-0.2,0.6-0.2,0.9l0,0.9
		c0,1.7,0,3.5,0,5.2c0.1,2.8-1.7,4.1-3,4.8c-1.1,0.6-2.2,1.4-3,2.3c-3.7,4.1-6.3,8.9-9,14.1l-0.4,0.7c-2.4,4.5-5.4,8.7-8.4,12.8
		c-0.7,1-1.5,2-2.2,3.1c-2.1,2.9-4.3,5.8-6.4,8.6c-1.7,2.3-3.5,4.7-5.2,7c-0.6,0.8-1.6,2.2-1.7,3.2c0,0.4,0.3,1.3,0.7,2
		c0.3,0.6,0.5,1.3,0.8,2l1.5,4.4L222.8,236.1z M211.8,200.5c2.7,0,4,1.8,6.2,4.7l0.1,0.1c1.4,1.9,1.5,3.8,0.2,5.6
		c-0.9,1.3-1.8,2.6-2.6,3.9c-0.8,1.2-1.6,2.4-2.5,3.7c-0.8,1.1-0.8,2.9-0.4,3.3c1.2,1.4,2.6,2.9,4.2,4.4c3.4-5.1,6.2-9.2,8.9-12.9
		c1.4-1.9,2.9-3.9,4.3-5.8c5.6-7.5,11.4-15.3,15.2-24.1c1.8-4.2,5.2-8.4,8.9-11.1c1.8-1.3,1.8-2.3,1.8-4.6l0-0.1c0-0.3,0-0.7,0-1
		c0-0.8,0-1.7,0.1-2.6c0.1-1,0.5-2.3,1.4-3.3c3.5-3.6,7.2-7.2,10.9-10.8c0.9-0.8,2.1-0.9,2.6-0.9c0.8,0,1.4,0.2,1.9,0.6
		c1.1,0.8,2.7,2.1,2.9,4.1c0.2,1.4-0.4,2.8-1.6,4.2c-3,3.4-3,7.3-2.8,11.9c0.1,0,0.1,0,0.2,0c1.5-0.4,3.1-0.8,3.9-1.5
		c3.1-3.2,4.2-5.9,3.8-8.9c-0.2-1.4,0.2-2.8,1.1-3.8c1-1.2,2.6-1.8,4.2-1.8c0.6,0,1.1,0.1,1.7,0.2c0.5,0.1,1,0.3,1.5,0.4
		c1.3,0.3,2.7,0.7,4.1,1.2c0.2,0.1,0.4,0.1,0.5,0.1c0,0,0.1-0.1,0.1-0.2c0.2-0.6,0.5-1,0.8-1.5c0.1-0.1,0.2-0.3,0.2-0.4
		c1.2-1.9,3-3,5-3c1.7,0,3.4,0.8,4.8,2.2c2.5,2.7,2.9,5.5,1.2,8.4c-0.6,1.1-1.1,2.3-1.5,3.6c-1.1,3.9-3.8,4.9-5.9,5
		c-0.7,0-1.2,0.1-1.5,1.6l-0.1,0.3c-0.2,0.7-0.4,1.6-0.7,2.4c0.2,0,0.3,0,0.5,0c0.3,0,0.4,0,0.4-0.1c0,0,0.1-0.2,0.2-0.8
		c0.3-1.6,1.8-2.3,2.9-2.8c0.2-0.1,0.3-0.1,0.4-0.2c0.5-0.2,1-0.4,1.3-0.5c0.2,0,0.4-0.1,0.4-0.1c0.2-0.2,0.5-0.5,0.7-0.8
		c0.5-0.6,1.1-1.3,2-1.8c1.2-0.7,2.4-1.2,3.6-1.7c0.8-0.3,1.5-0.7,2.2-1c0.4-0.2,0.9-0.4,1.3-0.6c1.8-0.7,1.8-0.9,1.8-1.6
		c-0.1-1.3,0.7-2.1,1.2-2.5c0.1-0.1,0.1-0.1,0.2-0.2l0.1-0.2c0.2-0.4,0.5-1,0.5-1.3c0.4-5.7,5.3-10.6,10.8-10.6c0,0,0.4,0,0.5,0
		c1.9,0,3.8-0.3,5.8-0.5c0.9-0.1,1.9-0.3,2.9-0.4c2.6-0.3,5.2-0.6,7.8-0.9c6.4-0.7,13-1.4,19.5-2.2c1-0.1,2-0.2,3-0.3
		c3.9-0.3,7.3-0.6,9.8-3.5c1.3-1.5,2.9-2.9,4.9-4c1.4-0.8,3.1-1.3,4.6-1.3c0.2,0,0.4,0,0.6,0c4.1,0.4,8.2,1,11.7,1.6
		c2.2,0.4,4.5,0.6,6.7,0.9c5.8,0.7,11.7,1.4,17.4,3.7c1.9,0.7,3.5,1.8,5.2,3c1,0.7,2,1.5,3,2.3c1.4,1.1,2.6,2.1,4,2.9l0.1,0
		c1.5,0.9,3.3,2.1,4,4.6c0,0,0,0,0,0c0.7,0.2,1.4,0.3,2.3,0.5c0-0.8,0-1.7-0.1-2.5l0-0.1c-0.2-1.8-0.4-4.3,2-6.3c0,0,0-0.1,0.1-0.1
		c-1-3.3,1.5-4.8,2.5-5.4c1.3-0.8,2.5-1.1,3.7-1.1c0.8,0,1.6,0.2,2.4,0.5c1.2,0.5,2.5,0.8,3.8,1.2c0.9,0.3,1.8,0.5,2.8,0.8
		c1.2,0.4,2.1,1,2.7,1.7c0.9,1.2,1.3,1.2,1.5,1.2c0.2,0,0.7-0.1,1.6-0.5c1.1-0.5,2.4-0.8,3.5-0.8c0.1,0,0.2,0,0.3,0
		c7.2,0.3,14.3,0.7,22.2,1.1c0.2,0,0.4,0,0.6,0c1,0,2.4,0,3.6,0.9c0.2,0.1,0.4,0.3,0.6,0.4c-1.6-1.5-2.6-3.5-2.9-5.6
		c-0.2-1.7-0.8-2.4-2.5-3.9c-1.6-1.4-3.4-2.1-6-2.1c-0.3,0-0.7,0-1,0c-0.1,0-0.3,0-0.4,0c-1.7,0-3.2-0.6-4.2-1.8
		c-1-1.2-1.5-2.8-1.2-4.5c0.2-1.2,0.7-2.2,1.2-2.9c0.2-0.4,0.4-0.7,0.5-1c0.1-0.3,0.2-0.5,0.4-0.8c0.1-0.3,0.4-0.8,0.4-1
		c-0.7-3.2-1.6-6.4-2.5-9.5c-0.4-1.5-0.8-2.9-1.2-4.4c-2,0.3-4.1,0.5-6.1,0.7c-4.2,0.5-8.5,1-12.7,1.6c-0.4,0.1-0.8,0.1-1.2,0.1
		c-3,0-4.3-2.1-5.2-3.5l-0.1-0.2c-0.1-0.1-0.1-0.2-0.2-0.3c-0.6,0-1.2-0.1-1.8-0.1c-0.8,0-1.4,0.1-2,0.2c-1.9,0.4-3.8,0.9-5.8,1.5
		c-1.1,0.3-2.2,0.6-3.3,0.9c-0.3,0.1-0.6,0.1-0.9,0.1c-0.6,0-1.1-0.1-1.5-0.2c-1.1-0.3-2.1-0.5-3.1-0.8c-0.6-0.2-1.2-0.3-1.8-0.5
		c-0.1,0-0.4-0.1-0.5-0.1c-0.9-0.1-2.2-0.3-3-1.4c-1-1.5-2.5-1.8-4.9-2.2c-0.4-0.1-0.8-0.1-1.2-0.2c-2.8-0.5-4.2-2.4-3.7-5.1
		c0.4-2.4,0.4-4.9,0.5-7.6c0.1-4.2,0.2-8.5,1.6-12.7c-0.3,0-0.6,0-0.9,0.1c-1.5,0.1-3.1,0.2-4.7,0.2l-0.1,0c-0.7,0-1.3-0.1-1.9-0.2
		c-0.4-0.1-0.8-0.1-1-0.1c-0.1,0-0.1,0-0.1,0c-2.1,0.4-4.2,0.9-6.2,1.4c-3,0.7-6.1,1.4-9.2,1.9c-4.7,0.7-9.4,1.3-14,1.8
		c-2,0.2-3.9,0.4-5.9,0.7c-3.8,0.4-7.5,0.9-11.3,1.3c-9.8,1.1-19.8,2.3-29.8,3.5c-0.4,0-0.7,0.1-1.1,0.1c-2.5,0.3-5.1,0.6-7.3,1.5
		c-3.7,1.5-7.3,3.4-10.8,5.4l-1.6,0.9c-0.5,0.3-0.9,0.8-1,1c-0.7,3.1-2.6,4.4-4.3,5.3c-2.1,1.1-4.2,2.4-6,3.5
		c-0.9,0.6-1.7,1.2-2.6,1.8c-0.8,0.6-1.6,1.1-2.4,1.7c-0.8,0.5-1.6,0.8-2.4,0.8c-1.5,0-2.7-0.8-3.5-2.2c-0.4-0.8-1-1-2.8-1.2
		c-0.6-0.1-1.2-0.2-1.8-0.2c-0.8-0.1-1.6-0.2-2.5-0.3c-1-0.2-2-0.3-3.1-0.4c-5.3-0.7-11.3-1.4-15.3-7.5c0,0-0.2-0.2-0.7-0.2
		c-0.9,0-1.8,0.5-1.9,0.8c-0.9,2-2.4,2.9-4.6,2.9l-0.1,0c-3.2,0-6.5,0-9.7,0c-3.2,0-6,0-8.6,0l-0.1,0c-2.8,0-4.5-1.5-4.8-4.3
		c-0.1-0.7-0.1-1.4-0.1-2.1c0-0.7,0-1.9-0.2-2.3c-0.9-0.9-1.7-1.8-2.3-2.7c-0.7-0.9-1.3-1.8-2-2.3c-2.8-2-4.7-4.5-6.5-7
		c-0.8-1.1-1.6-2.2-2.5-3.2l-0.7-0.8l0.1-1c0.3-2.4-0.5-3.4-3-3.7L214,72l-0.5-1.2c-0.1-0.2-0.1-0.3-0.1-0.3c-0.3,0-0.7,0.1-1.2,0.2
		c-0.3,0.1-0.6,0.1-0.9,0.2c-0.5,0.1-0.9,0.1-1.3,0.1c-2.2,0-3.7-1.4-4-3.7c0-0.2-0.1-0.3-0.1-0.4c-2-0.7-4.1-1.4-6.2-1.7
		c-1.2-0.2-2.4-0.2-3.8-0.3c-1.5-0.1-3-0.1-4.5-0.4c-0.4-0.1-0.8-0.1-1.3-0.1c-1.6,0-4,0-5.7-2.2c-3.7,0.7-6.5,1.8-8.1,4.7
		c-0.5,1-1.3,1.7-1.9,2.4c-1.3,1.4-2.7,1.7-3.7,1.7c-1.1,0-2.3-0.4-3.3-1.2c-0.9-0.7-2.1-1.8-2.3-3.4c0-0.3,0-0.6,0-0.8
		c-0.3,0.4-0.4,0.9-0.5,1.5c-0.1,1.1-0.9,1.8-1.3,2l0,0c-4,3.1-7.4,5.7-10.8,8.3c-0.4,0.3-0.9,0.5-1.5,0.5c-0.3,0-0.6-0.1-0.8-0.1
		l0,0l-2.1-0.2l0.2-2.2c0.2-2.4,0.4-4.8,0.6-7.2c0.5-5.8,1-11.7,1.6-17.6c0-0.4,0.1-0.8,0.1-1.2c0.1-1.4,0.4-4.1,3.2-4.1
		c0.7,0,1.5,0.2,2.9,0.5l0.6,0.1c0.4,0.1,0.7,0.2,1,0.2c1-1.2,1-1.4,0.7-1.9c-0.8-1.3-0.6-2.4-0.4-3.1c0.4-1.1,1.2-1.9,2.5-2.5
		c0.5-0.2,0.9-0.4,1.4-0.7c1-0.5,1.9-1,3.1-1.3c1.8-0.6,2-1.2,1.8-2.6c-0.4-2.4,0.7-4.4,2.9-5.3c5-2.1,9.2-5.4,13.7-8.9
		c1.4-1.1,2.8-2.1,4.2-3.2c1.4-1,1.4-1.4,1.3-2.1c-0.2-1.2,0-2,0.3-2.7c-9,2.2-18.2,4.4-27.2,6.5c-3.8,0.9-5.7,2.1-7,4.5
		c-0.6,1.1-1.3,2-2,2.9c-0.6,0.7-1.1,1.4-1.5,2.1c-1.7,3-4,4.6-7.1,4.6c-0.6,0-1.2-0.1-1.8-0.2c-0.3-0.1-0.6-0.1-0.8-0.1
		c-0.8,0-1.7,0.2-2.6,1.7c-2.3,3.9-5.5,5.9-9.6,6.2c0,0-0.1,0-0.1,0.1c-0.9,2.1-2.6,3.3-5.1,3.6c-1.3,0.1-1.7,0.6-2,2
		c-0.1,0.6-0.3,1-0.4,1.5c-0.1,0.3-0.2,0.5-0.2,0.7c-0.4,2.2-1.9,3.6-4.4,4.1c-1.5,0.3-3,0.7-4.5,1c-1,0.2-2.1,0.5-3.1,0.7
		c-4.1,0.9-5.9,1.4-7.3,2.2c-1.4,0.8-2.6,2.3-5.1,5.3l-0.2,0.2c-1.2,1.4-3,2.6-4.7,2.9c-6,1.3-12.1,2.6-18,3.8
		c-5.4,1.1-11.1,2.3-16.6,3.5c-0.8,0.2-1.6,0.3-2.4,0.5c-3.4,0.7-6.7,1.3-9.2,3.6C39.6,82.3,31,86.6,20.5,89.1
		c-2.3,0.5-4.5,1.2-6.6,1.9c-0.2,0.1-0.3,0.1-0.5,0.2c0.6,0.6,1,1.4,1,2.3c0,0.4,0,0.7,0,0.7c0.1,0.1,0.4,0.2,1.4,0.2
		c2.3,0.1,7,0.4,9,5c1.3,3,2.8,6.5,4.1,10.3c0.3,0.9,0.5,1.1,1.5,1.3c25.7,5,47.9,10.4,68,16.6c1.6,0.5,3.3,1,4.9,1.4
		c7.1,2,14.5,4.1,20.7,9.1c0.1,0,0.2,0.1,0.7,0.2c4.4,0.7,8.7,1.5,13.1,2.2c13.1,2.2,26.7,4.6,40,6.7c5.4,0.9,6.1,4.7,6.6,7.3
		c0.1,0.7,0.3,1.4,0.5,2c0.7,2.1,0.2,3.4-0.6,4.3c1.2,0.5,2.3,0.9,3.5,1.4c4.8,1.9,9.8,3.9,14.7,5.7c3.1,1.2,4.2,3.7,5,5.7
		c0.2,0.6,0.5,1.1,0.7,1.6c0.8,1.4-0.1,3.1-0.9,3.8c-0.1,0.1-0.1,0.1-0.1,0.1c0,0.2,0.2,0.8,0.4,1.2l0.1,0.2
		c0.4,1.1,0.6,2.5,0.4,3.9c-0.1,0.8-0.3,1.5-0.5,2.1c-0.2,0.5-0.3,1-0.3,1.4c0,0.6,0,1.1,0,1.7c0,2.6-0.1,5.5-1.9,8.3
		c-0.9,1.4-1.7,3-2.6,5.3c0.9-0.3,1.8-0.6,2.8-1c0.4-0.1,0.8-0.3,1.2-0.4C209,201,210.4,200.5,211.8,200.5z M203.2,8.3
		c-0.1,0-0.2,0-0.3,0.1C203,8.4,203.1,8.4,203.2,8.3z"/>
</g>
</svg>
